{
    "authors": "Wim Looman <https://github.com/Nemo157>",
    "definitionFilename": "index.d.ts",
    "libraryDependencies": [],
    "moduleDependencies": [],
    "libraryMajorVersion": "0",
    "libraryMinorVersion": "1",
    "libraryName": "mess 0.1.2",
    "typingsPackageName": "mess",
    "projectName": "https://github.com/bobrik/node-mess",
    "sourceRepoURL": "https://www.github.com/DefinitelyTyped/DefinitelyTyped",
    "sourceBranch": "types-2.0",
    "kind": "ProperModule",
    "globals": [
        "shuffle"
    ],
    "declaredModules": [
        "mess"
    ],
    "files": [
        "index.d.ts"
    ],
    "hasPackageJson": false,
    "contentHash": "dbefe95c8670303166ac4e443e562782177ee83154b90d5b3ee77254522f3775"
}